[gd_scene load_steps=7 format=2]

[ext_resource path="res://gfx/statue.png" type="Texture" id=1]
[ext_resource path="res://philosopher.gd" type="Script" id=2]
[ext_resource path="res://letterText.gd" type="Script" id=3]
[ext_resource path="res://AntiqueNo14.ttf" type="DynamicFontData" id=4]

[sub_resource type="CircleShape2D" id=1]
radius = 40.0

[sub_resource type="DynamicFont" id=2]
font_data = ExtResource( 4 )

[node name="philosopher" type="Area2D"]
script = ExtResource( 2 )

[node name="CollisionShape2D" type="CollisionShape2D" parent="."]
position = Vector2( 0, -24 )
shape = SubResource( 1 )

[node name="letterText" type="Label" parent="."]
margin_left = -8.0
margin_top = -96.0
margin_right = 8.0
margin_bottom = -64.0
custom_fonts/font = SubResource( 2 )
text = "A"
align = 1
valign = 1
script = ExtResource( 3 )
__meta__ = {
"_edit_use_anchors_": false
}

[node name="talkContainer" type="Node2D" parent="."]
position = Vector2( 0, -80 )

[node name="Sprite" type="Sprite" parent="."]
position = Vector2( 9.53674e-07, -24 )
scale = Vector2( 0.182857, 0.205714 )
texture = ExtResource( 1 )

[connection signal="body_entered" from="." to="." method="_onBodyEntered"]
[connection signal="body_exited" from="." to="." method="_onBodyExited"]
