[gd_resource type="Animation" format=2]

[resource]
resource_name = "phil-left"
tracks/0/type = "value"
tracks/0/path = NodePath("Sprite:position")
tracks/0/interp = 2
tracks/0/loop_wrap = true
tracks/0/imported = false
tracks/0/enabled = true
tracks/0/keys = {
"times": PoolRealArray( 0, 1 ),
"transitions": PoolRealArray( 1, 1 ),
"update": 0,
"values": [ Vector2( -448, 545 ), Vector2( 184, 545 ) ]
}
